Korrelation ist nicht gleich Kausalität
…
## Scheinkorrelation

Nun wollen wir die Korrelation zwischen `\(X\)` und `\(Y\)` berechnen.
Dabei interessieren wir uns besonders für die maximale Korrelation innerhalb jeder Gruppe (absteigende Sortierung):

```r
max_res <- simulation %>% 
  group_by(group) %>% 
  summarize(r = cor(X, Y)) %>% 
  arrange(desc(r))
max_res
```

```
# A tibble: 1,000,000 x 2
    group     r
    <int> <dbl>
 1 175640 0.786
 2 160152 0.771
 3 575661 0.771
 4 293521 0.764
 5   5709 0.763
 6 928163 0.754
 7 276257 0.753
 8  55150 0.751
 9 793723 0.743
10 296991 0.740
# … with 999,990 more rows
```
…
