Wahrscheinlichkeiten und Verteilungen
…
Können Sie hiermit etwas über die Stichprobenvarianz (Verteilung mehrerer Stichproben) aussagen?

---

## Stichprobenvarianz

```r
library(infer)
stichprobe %>% 
  specify(formula = farbe ~ NULL, success = "rot")
```

```
Response: farbe (factor)
# A tibble: 50 x 1
   farbe
   <fct>
 1 rot  
 2 rot  
 3 rot  
 4 rot  
 5 rot  
 6 weiß 
 7 weiß 
 8 weiß 
 9 weiß 
10 weiß 
# … with 40 more rows
```
---

## Stichprobenvarianz

```r
bootstrap <- stichprobe %>% 
  specify(formula = farbe ~ NULL, success = "rot") %>% 
  generate(reps = 48, type = "bootstrap")

bootstrap
```

```
Response: farbe (factor)
# A tibble: 2,400 x 2
# Groups:   replicate [48]
   replicate farbe
       <int> <fct>
 1         1 weiß 
 2         1 rot  
 3         1 rot  
 4         1 rot  
 5         1 weiß 
 6         1 weiß 
 7         1 weiß 
 8         1 rot  
 9         1 weiß 
10         1 weiß 
# … with 2,390 more rows
```
…
